<?xml version="1.0" encoding="UTF-8" standalone="no"?>
<!-- Created with Inkscape (http://www.inkscape.org/) -->

<svg
   xmlns:dc="http://purl.org/dc/elements/1.1/"
   xmlns:cc="http://creativecommons.org/ns#"
   xmlns:rdf="http://www.w3.org/1999/02/22-rdf-syntax-ns#"
   xmlns:svg="http://www.w3.org/2000/svg"
   xmlns="http://www.w3.org/2000/svg"
   xmlns:xlink="http://www.w3.org/1999/xlink"
   xmlns:sodipodi="http://sodipodi.sourceforge.net/DTD/sodipodi-0.dtd"
   xmlns:inkscape="http://www.inkscape.org/namespaces/inkscape"
   width="140"
   height="489.00003"
   viewBox="0 0 37.041666 129.38126"
   version="1.1"
   id="svg5435"
   inkscape:version="0.92.1 r15371"
   sodipodi:docname="oil-tank-base.svg">
  <defs
     id="defs5429">
    <linearGradient
       inkscape:collect="always"
       xlink:href="#SVGID_6_-6"
       id="linearGradient7786"
       gradientUnits="userSpaceOnUse"
       x1="202.7258"
       y1="274.9563"
       x2="336.68799"
       y2="274.94699" />
    <linearGradient
       id="SVGID_6_-6"
       gradientUnits="userSpaceOnUse"
       x1="202.7258"
       y1="274.9563"
       x2="336.68799"
       y2="274.94699">
      <stop
         offset="0"
         style="stop-color:#616166"
         id="stop4665-2" />
      <stop
         offset="0.21"
         style="stop-color:#9B9B9B"
         id="stop4667-6" />
      <stop
         offset="1"
         style="stop-color:#48484F"
         id="stop4669-1" />
    </linearGradient>
  </defs>
  <sodipodi:namedview
     id="base"
     pagecolor="#ffffff"
     bordercolor="#666666"
     borderopacity="1.0"
     inkscape:pageopacity="0.0"
     inkscape:pageshadow="2"
     inkscape:zoom="0.49497475"
     inkscape:cx="31.91244"
     inkscape:cy="301.65213"
     inkscape:document-units="px"
     inkscape:current-layer="layer1"
     showgrid="false"
     units="px"
     fit-margin-top="0"
     fit-margin-left="0"
     fit-margin-right="0"
     fit-margin-bottom="0"
     inkscape:window-width="1680"
     inkscape:window-height="1027"
     inkscape:window-x="-8"
     inkscape:window-y="-8"
     inkscape:window-maximized="1" />
  <metadata
     id="metadata5432">
    <rdf:RDF>
      <cc:Work
         rdf:about="">
        <dc:format>image/svg+xml</dc:format>
        <dc:type
           rdf:resource="http://purl.org/dc/dcmitype/StillImage" />
        <dc:title></dc:title>
      </cc:Work>
    </rdf:RDF>
  </metadata>
  <g
     inkscape:label="Layer 1"
     inkscape:groupmode="layer"
     id="layer1"
     transform="translate(44.60119,-84.142702)">
    <g
       id="g7783"
       transform="matrix(0.2640052,0,0,1.1695413,-97.225405,-181.93582)"
       style="stroke:none">
      <defs
         id="defs7767" />
      <clipPath
         id="clipPath7771">
        <use
           height="100%"
           width="100%"
           y="0"
           x="0"
           id="use7769"
           style="overflow:visible"
           xlink:href="#SVGID_1457_-4" />
      </clipPath>
      <linearGradient
         y2="274.94699"
         x2="336.68799"
         y1="274.9563"
         x1="202.7258"
         gradientUnits="userSpaceOnUse"
         id="linearGradient7779">
        <stop
           id="stop7773"
           style="stop-color:#616166"
           offset="0" />
        <stop
           id="stop7775"
           style="stop-color:#9B9B9B"
           offset="0.21" />
        <stop
           id="stop7777"
           style="stop-color:#48484F"
           offset="1" />
      </linearGradient>
      <path
         id="rect7781"
         style="fill:url(#linearGradient7786);stroke:none"
         d="M 199.33022,229.5428 H 339.6368 v 90.49132 l -62.13577,18.09826 h -18.03942 l -60.13139,-18.09826 z"
         inkscape:connector-curvature="0"
         sodipodi:nodetypes="ccccccc" />
    </g>
    <path
       inkscape:connector-curvature="0"
       style="fill:#8b959f;fill-opacity:1;stroke:none;stroke-width:0.76799989;stroke-miterlimit:4;stroke-dasharray:none"
       d="m -32.156325,84.142702 h 11.641667 v 1.058333 h -11.641667 z"
       id="rect7837"
       sodipodi:nodetypes="ccccc" />
  </g>
</svg>
